C:\java\WorkspaceCDAJee2\ChienSpringIoc\src\main\java\presentation\action\ModifierChienAction.java
C:\java\WorkspaceCDAJee2\ChienSpringIoc\src\main\java\presentation\action\DeconnexionAction.java
C:\java\WorkspaceCDAJee2\ChienSpringIoc\src\main\java\persistence\dao\imp\ClientDao.java
C:\java\WorkspaceCDAJee2\ChienSpringIoc\src\main\java\util\ContextConfigurationType.java
C:\java\WorkspaceCDAJee2\ChienSpringIoc\src\main\java\persistence\dao\IClientDao.java
C:\java\WorkspaceCDAJee2\ChienSpringIoc\src\main\java\presentation\action\ListerChienAction.java
C:\java\WorkspaceCDAJee2\ChienSpringIoc\src\main\java\presentation\action\RedirectAction.java
C:\java\WorkspaceCDAJee2\ChienSpringIoc\src\main\java\util\ContextFactory.java
C:\java\WorkspaceCDAJee2\ChienSpringIoc\src\main\java\service\imp\ClientService.java
C:\java\WorkspaceCDAJee2\ChienSpringIoc\src\main\java\presentation\form\ClientForm.java
C:\java\WorkspaceCDAJee2\ChienSpringIoc\src\main\java\persistence\dao\IChienDao.java
C:\java\WorkspaceCDAJee2\ChienSpringIoc\src\main\java\service\bean\ClientDto.java
C:\java\WorkspaceCDAJee2\ChienSpringIoc\src\main\java\presentation\action\CreerClientAction.java
C:\java\WorkspaceCDAJee2\ChienSpringIoc\src\main\java\presentation\action\ModifierClientAction.java
C:\java\WorkspaceCDAJee2\ChienSpringIoc\src\main\java\persistence\bean\Client.java
C:\java\WorkspaceCDAJee2\ChienSpringIoc\src\main\java\presentation\form\ConnexionForm.java
C:\java\WorkspaceCDAJee2\ChienSpringIoc\src\main\java\persistence\bean\ChienDo.java
C:\java\WorkspaceCDAJee2\ChienSpringIoc\src\main\java\service\bean\mapper\ChienMapper.java
C:\java\WorkspaceCDAJee2\ChienSpringIoc\src\main\java\service\IChienService.java
C:\java\WorkspaceCDAJee2\ChienSpringIoc\src\main\java\service\IClientService.java
C:\java\WorkspaceCDAJee2\ChienSpringIoc\src\main\java\util\MD5Encryption.java
C:\java\WorkspaceCDAJee2\ChienSpringIoc\src\main\java\presentation\action\InitAction.java
C:\java\WorkspaceCDAJee2\ChienSpringIoc\src\main\java\presentation\action\VoirModifierChienAction.java
C:\java\WorkspaceCDAJee2\ChienSpringIoc\src\main\java\persistence\dao\imp\ChienDao.java
C:\java\WorkspaceCDAJee2\ChienSpringIoc\src\main\java\presentation\action\SupprimerChienAction.java
C:\java\WorkspaceCDAJee2\ChienSpringIoc\src\main\java\persistence\factory\JpaFactory.java
C:\java\WorkspaceCDAJee2\ChienSpringIoc\src\main\java\service\imp\ChienService.java
C:\java\WorkspaceCDAJee2\ChienSpringIoc\src\main\java\service\bean\mapper\ClientMapper.java
C:\java\WorkspaceCDAJee2\ChienSpringIoc\src\main\java\presentation\action\CreerChienAction.java
C:\java\WorkspaceCDAJee2\ChienSpringIoc\src\main\java\presentation\action\ConsulterChienAction.java
C:\java\WorkspaceCDAJee2\ChienSpringIoc\src\main\java\service\bean\ChienDto.java
C:\java\WorkspaceCDAJee2\ChienSpringIoc\src\main\java\presentation\action\ConnexionAction.java
C:\java\WorkspaceCDAJee2\ChienSpringIoc\src\main\java\presentation\form\ChienForm.java
